<svg width="100" height="30" viewBox="0 0 100 30" fill="none" xmlns="http://www.w3.org/2000/svg">
<path fill-rule="evenodd" clip-rule="evenodd" d="M96.4423 29.762H3.50297C1.57203 29.762 0 28.1784 0 26.2403V3.51659C0 1.57763 1.57203 0 3.50297 0H96.4423C98.3726 0 100 1.57763 100 3.51659V26.2403C100 28.1784 98.3726 29.762 96.4423 29.762Z" fill="#A6A6A6"/>
<path fill-rule="evenodd" clip-rule="evenodd" d="M99.283 26.2412C99.283 27.8158 98.0134 29.091 96.4431 29.091L3.50299 29.0908C1.93319 29.0908 0.659424 27.8154 0.659424 26.241V3.51587C0.659424 1.94224 1.93354 0.662445 3.50299 0.662445H96.4423C98.0135 0.662445 99.2822 1.94224 99.2822 3.51587L99.283 26.2412Z" fill="#424242"/>
<path d="M34.5058 7.6217C34.5058 8.24296 34.3176 8.7406 33.947 9.11183C33.5207 9.55178 32.9656 9.77296 32.285 9.77296C31.6348 9.77296 31.0797 9.54814 30.6242 9.10443C30.1679 8.65419 29.9402 8.10189 29.9402 7.44051C29.9402 6.77914 30.1679 6.22684 30.6242 5.78035C31.0797 5.33325 31.6348 5.10806 32.285 5.10806C32.609 5.10806 32.9174 5.17399 33.2119 5.29677C33.5056 5.42051 33.7447 5.58776 33.9177 5.79428L33.5244 6.18672C33.2225 5.8344 32.8111 5.66024 32.2849 5.66024C31.8109 5.66024 31.3995 5.8241 31.0504 6.15436C30.7052 6.48523 30.5319 6.91403 30.5319 7.44051C30.5319 7.96699 30.7052 8.39955 31.0504 8.73066C31.3995 9.05693 31.8109 9.22454 32.2849 9.22454C32.7885 9.22454 33.2118 9.05693 33.5461 8.72702C33.766 8.50851 33.8912 8.20709 33.9242 7.82192H32.2849V7.28453H34.4719C34.4982 7.40052 34.5057 7.51311 34.5057 7.62194L34.5058 7.6217Z" fill="white" stroke="white" stroke-width="0.0762028" stroke-miterlimit="22.9256"/>
<path d="M37.9752 5.75784H35.9209V7.17173H37.773V7.70912H35.9209V9.12301H37.9752V9.6707H35.3394V5.21014H37.9752V5.75784Z" fill="white" stroke="white" stroke-width="0.0762028" stroke-miterlimit="22.9256"/>
<path d="M40.4238 9.6707H39.8422V5.75784H38.5823V5.21014H41.6847V5.75784H40.4238V9.6707Z" fill="white" stroke="white" stroke-width="0.0762028" stroke-miterlimit="22.9256"/>
<path d="M43.9299 9.6707V5.21014H44.5106V9.6707H43.9299Z" fill="white" stroke="white" stroke-width="0.0762028" stroke-miterlimit="22.9256"/>
<path d="M47.0842 9.6707H46.5076V5.75784H45.2427V5.21014H48.3491V5.75784H47.0842V9.6707Z" fill="white" stroke="white" stroke-width="0.0762028" stroke-miterlimit="22.9256"/>
<path d="M54.2229 9.09695C53.7778 9.54805 53.2265 9.77299 52.5685 9.77299C51.9071 9.77299 51.3557 9.54817 50.9105 9.09695C50.4662 8.6467 50.2451 8.0944 50.2451 7.44042C50.2451 6.78644 50.4663 6.23426 50.9105 5.78389C51.3557 5.33303 51.907 5.10785 52.5685 5.10785C53.2225 5.10785 53.7741 5.33303 54.2189 5.78753C54.6669 6.24153 54.8881 6.79007 54.8881 7.4403C54.8881 8.09428 54.6669 8.64646 54.2229 9.09683V9.09695ZM51.3405 8.72318C51.6756 9.05683 52.083 9.22445 52.5685 9.22445C53.0502 9.22445 53.4616 9.05683 53.7927 8.72318C54.127 8.38916 54.2963 7.96036 54.2963 7.44054C54.2963 6.9206 54.127 6.49181 53.7927 6.15791C53.4616 5.82425 53.0502 5.65663 52.5685 5.65663C52.083 5.65663 51.6756 5.82425 51.3405 6.15791C51.0065 6.49193 50.8369 6.92072 50.8369 7.44054C50.8369 7.96048 51.0065 8.38928 51.3405 8.72318Z" fill="white" stroke="white" stroke-width="0.0762028" stroke-miterlimit="22.9256"/>
<path d="M55.7039 9.6707V5.21014H56.4096L58.604 8.67931H58.6296L58.604 7.82171V5.21014H59.1847V9.6707H58.5789L56.2808 6.03053H56.2555L56.2808 6.89164V9.6707H55.7039Z" fill="white" stroke="white" stroke-width="0.0762028" stroke-miterlimit="22.9256"/>
<path d="M50.1023 16.185C48.3341 16.185 46.8896 17.5149 46.8896 19.3499C46.8896 21.1703 48.3341 22.5139 50.1023 22.5139C51.8742 22.5139 53.3185 21.1702 53.3185 19.3499C53.3185 17.515 51.8743 16.185 50.1023 16.185ZM50.1023 21.2676C49.1321 21.2676 48.2974 20.4762 48.2974 19.3499C48.2974 18.2087 49.1321 17.4314 50.1023 17.4314C51.0725 17.4314 51.9109 18.2087 51.9109 19.3499C51.9109 20.4762 51.0725 21.2676 50.1023 21.2676ZM43.0928 16.185C41.3209 16.185 39.8801 17.5149 39.8801 19.3499C39.8801 21.1703 41.3209 22.5139 43.0928 22.5139C44.8636 22.5139 46.3053 21.1702 46.3053 19.3499C46.3053 17.515 44.8636 16.185 43.0928 16.185ZM43.0928 21.2676C42.1215 21.2676 41.2842 20.4762 41.2842 19.3499C41.2842 18.2087 42.1214 17.4314 43.0928 17.4314C44.063 17.4314 44.8977 18.2087 44.8977 19.3499C44.8977 20.4762 44.063 21.2676 43.0928 21.2676ZM34.7516 17.1549V18.5001H38.0011C37.9059 19.2514 37.6519 19.8039 37.2624 20.189C36.788 20.6539 36.0493 21.1703 34.7518 21.1703C32.7521 21.1703 31.1861 19.5751 31.1861 17.5986C31.1861 15.6225 32.7521 14.0273 34.7518 14.0273C35.8331 14.0273 36.6196 14.4449 37.2003 14.9863L38.1593 14.0384C37.347 13.2719 36.2668 12.6833 34.7519 12.6833C32.0098 12.6833 29.7053 14.8886 29.7053 17.5986C29.7053 20.309 32.0098 22.5139 34.7519 22.5139C36.2339 22.5139 37.3471 22.0341 38.2224 21.1338C39.119 20.2476 39.3985 19.0012 39.3985 17.9947C39.3985 17.6825 39.3722 17.3949 39.3251 17.1548H34.7518L34.7516 17.1549ZM68.8594 18.1976C68.5951 17.4898 67.7793 16.1851 66.1173 16.1851C64.4706 16.1851 63.0996 17.4675 63.0996 19.35C63.0996 21.1228 64.4566 22.514 66.2754 22.514C67.7462 22.514 68.595 21.6278 68.9442 21.1116L67.8525 20.3927C67.4885 20.9192 66.9924 21.2678 66.2754 21.2678C65.563 21.2678 65.052 20.9452 64.7245 20.3091L69.0072 18.5578L68.8593 18.1977L68.8594 18.1976ZM64.4932 19.2514C64.4564 18.0312 65.4522 17.4062 66.1655 17.4062C66.7243 17.4062 67.1987 17.6826 67.3568 18.0776L64.4933 19.2514H64.4932ZM61.0124 22.3214H62.4202V13.021H61.0124V22.3214ZM58.7068 16.89H58.6598C58.3436 16.5198 57.7406 16.1851 56.9764 16.1851C55.3729 16.1851 53.9068 17.5763 53.9068 19.3603C53.9068 21.1339 55.3728 22.514 56.9764 22.514C57.7406 22.514 58.3436 22.1766 58.6598 21.7951H58.7068V22.2491C58.7068 23.459 58.0528 24.1092 56.9982 24.1092C56.138 24.1092 55.6044 23.4954 55.3843 22.9792L54.1601 23.4842C54.5127 24.3231 55.4473 25.3555 56.9982 25.3555C58.6487 25.3555 60.0413 24.3956 60.0413 22.0603V16.3775H58.7068V16.89ZM57.0967 21.2676C56.1268 21.2676 55.3145 20.4651 55.3145 19.3602C55.3145 18.2451 56.1269 17.4314 57.0967 17.4314C58.0528 17.4314 58.8068 18.2452 58.8068 19.3602C58.8068 20.4651 58.0528 21.2676 57.0967 21.2676ZM75.4505 13.021H72.0834V22.3214H73.4876V18.7976H75.4507C77.0097 18.7976 78.5388 17.6825 78.5388 15.9089C78.5388 14.1361 77.006 13.021 75.4507 13.021H75.4505ZM75.4873 17.5038H73.4876V14.3146H75.4873C76.5354 14.3146 77.134 15.1751 77.134 15.909C77.134 16.6288 76.5353 17.504 75.4873 17.504V17.5038ZM84.1662 16.1673C83.1517 16.1673 82.097 16.6101 81.663 17.5912L82.909 18.1074C83.1771 17.5912 83.6702 17.424 84.1917 17.424C84.9198 17.424 85.6585 17.8565 85.6697 18.6198V18.7175C85.4156 18.5726 84.872 18.3578 84.2028 18.3578C82.8608 18.3578 81.4937 19.0879 81.4937 20.4503C81.4937 21.6965 82.5927 22.4992 83.8282 22.4992C84.7732 22.4992 85.2944 22.0782 85.6219 21.5878H85.6698V22.3068H87.0258V18.7391C87.0258 17.0901 85.78 16.1674 84.1662 16.1674V16.1673ZM83.9967 21.2639C83.5374 21.2639 82.8976 21.0391 82.8976 20.4762C82.8976 19.7564 83.6957 19.4802 84.3866 19.4802C85.0047 19.4802 85.2946 19.6151 85.6698 19.7928C85.5598 20.6538 84.8099 21.264 83.9967 21.264V21.2639ZM91.9664 16.3709L90.3523 20.4029H90.3044L88.6359 16.3709H87.122L89.6286 22.0052L88.1983 25.1406H89.6652L93.5281 16.3709H91.9661H91.9664ZM79.3106 22.3214H80.7184V13.021H79.3106V22.3214Z" fill="white"/>
<path d="M6.66485 5.60923C6.44366 5.83805 6.31592 6.19413 6.31592 6.65565V23.1103C6.31592 23.5715 6.44366 23.9278 6.66485 24.1567L6.71951 24.2069L16.0487 14.9901V14.7724L6.71951 5.5553L6.66485 5.60947V5.60923Z" fill="url(#paint0_linear)"/>
<path d="M19.155 18.0638L16.0488 14.99V14.7723L19.159 11.6985L19.2286 11.7384L22.9116 13.8096C23.9626 14.3974 23.9626 15.3647 22.9116 15.9563L19.2286 18.0238L19.155 18.0639V18.0638Z" fill="url(#paint1_linear)"/>
<path d="M19.2286 18.0236L16.0489 14.8811L6.66504 24.1567C7.01421 24.5193 7.58372 24.5629 8.23103 24.2002L19.2288 18.0236H19.2286Z" fill="url(#paint2_linear)"/>
<path d="M19.2285 11.7382L8.23079 5.5616C7.58347 5.20273 7.01397 5.24624 6.66479 5.60911L16.0486 14.881L19.2284 11.7381L19.2285 11.7382Z" fill="url(#paint3_linear)"/>
<defs>
<linearGradient id="paint0_linear" x1="24.0624" y1="27.6111" x2="4.91608" y2="8.68789" gradientUnits="userSpaceOnUse">
<stop stop-color="#00A1FF"/>
<stop offset="0.258824" stop-color="#00BDFF"/>
<stop offset="0.509804" stop-color="#00D1FF"/>
<stop offset="0.760784" stop-color="#00DFFF"/>
<stop offset="1" stop-color="#00E2FF"/>
</linearGradient>
<linearGradient id="paint1_linear" x1="24.2806" y1="14.8808" x2="6.06457" y2="14.8808" gradientUnits="userSpaceOnUse">
<stop stop-color="#FFDF00"/>
<stop offset="0.4" stop-color="#FFBC00"/>
<stop offset="0.768627" stop-color="#FFA500"/>
<stop offset="1" stop-color="#FF9C00"/>
</linearGradient>
<linearGradient id="paint2_linear" x1="6.89931" y1="13.6889" x2="-53.0338" y2="-45.549" gradientUnits="userSpaceOnUse">
<stop stop-color="#FF3A44"/>
<stop offset="1" stop-color="#C31162"/>
</linearGradient>
<linearGradient id="paint3_linear" x1="-39.2283" y1="61.6647" x2="-12.4815" y2="35.2296" gradientUnits="userSpaceOnUse">
<stop stop-color="#31A070"/>
<stop offset="0.0588235" stop-color="#2DA770"/>
<stop offset="0.470588" stop-color="#15CF74"/>
<stop offset="0.8" stop-color="#05E675"/>
<stop offset="1" stop-color="#00EF75"/>
</linearGradient>
</defs>
</svg>
